spvlemm1 : /appli/product/install_WSO2-EMM.sh,638 : 25/06/2015 : 132032 : cd /appli/WSO2-EMM/gen_certificates
spvlemm1 : /appli/product/install_WSO2-EMM.sh,cd : 25/06/2015 : 132032 : Code retour = 0
spvlemm1 : /appli/product/install_WSO2-EMM.sh,640 : 25/06/2015 : 132032 : keytool -import -noprompt -alias SPPWMFTVDC01.si.francetv.fr -keystore /appli/WSO2-EMM/wso2emm-1.1.0/repository/resources/security/client-truststore.jks -file certificat_ldap.der -storepass wso2carbon
Certificate was added to keystore
spvlemm1 : /appli/product/install_WSO2-EMM.sh,keytool : 25/06/2015 : 132032 : Code retour = 0
spvlemm1 : /appli/product/install_WSO2-EMM.sh,642 : 25/06/2015 : 132032 : rm /appli/WSO2-EMM/wso2emm-1.1.0/repository/resources/security/wso2emm.jks
spvlemm1 : /appli/product/install_WSO2-EMM.sh,rm : 25/06/2015 : 132032 : Code retour = 0
spvlemm1 : /appli/product/install_WSO2-EMM.sh,643 : 25/06/2015 : 132032 : keytool -importkeystore -srckeystore ra.p12 -srcstoretype pkcs12 -destkeystore /appli/WSO2-EMM/wso2emm-1.1.0/repository/resources/security/wso2emm.jks -destalias ra-ftv-mdm -srcalias racert -srcstorepass ftv2014 -deststorepass ftv2014
spvlemm1 : /appli/product/install_WSO2-EMM.sh,keytool : 25/06/2015 : 132032 : Code retour = 0
spvlemm1 : /appli/product/install_WSO2-EMM.sh,644 : 25/06/2015 : 132032 : keytool -importkeystore -srckeystore ca.p12 -srcstoretype pkcs12 -destkeystore /appli/WSO2-EMM/wso2emm-1.1.0/repository/resources/security/wso2emm.jks -destalias ca-ftv-mdm -srcalias cacert -srcstorepass ftv2014 -deststorepass ftv2014
spvlemm1 : /appli/product/install_WSO2-EMM.sh,keytool : 25/06/2015 : 132033 : Code retour = 0
spvlemm1 : /appli/product/install_WSO2-EMM.sh,647 : 25/06/2015 : 132033 : keytool -importkeystore -srckeystore KEYSTORE.p12 -srcstoretype pkcs12 -destkeystore /appli/WSO2-EMM/wso2emm-1.1.0/repository/resources/security/wso2carbon.jks -destalias ftvstore.francetv.fr -srcalias ftvstore.francetv.fr -srcstorepass wso2carbon -deststorepass wso2carbon
spvlemm1 : /appli/product/install_WSO2-EMM.sh,keytool : 25/06/2015 : 132034 : Code retour = 0
spvlemm1 : /appli/product/install_WSO2-EMM.sh,650 : 25/06/2015 : 132034 : keytool -importkeystore -srckeystore KEYSTORE.p12 -srcstoretype pkcs12 -destkeystore /appli/WSO2-EMM/wso2emm-1.1.0/repository/resources/security/client-truststore.jks -destalias ftvstore.francetv.fr -srcalias ftvstore.francetv.fr -srcstorepass wso2carbon -deststorepass wso2carbon
spvlemm1 : /appli/product/install_WSO2-EMM.sh,keytool : 25/06/2015 : 132034 : Code retour = 0
